%YAML 1.1
%TAG !u! tag:unity3d.com,2011:
--- !u!1001 &5050639191229220611
PrefabInstance:
  m_ObjectHideFlags: 0
  serializedVersion: 2
  m_Modification:
    m_TransformParent: {fileID: 0}
    m_Modifications:
    - target: {fileID: 719605472934495127, guid: c13f542dbe4e7b24689fefda9db40f42,
        type: 3}
      propertyPath: m_LocalRotation.x
      value: 0
      objectReference: {fileID: 0}
    - target: {fileID: 719605472934495127, guid: c13f542dbe4e7b24689fefda9db40f42,
        type: 3}
      propertyPath: m_LocalRotation.y
      value: 0.38268343
      objectReference: {fileID: 0}
    - target: {fileID: 719605472934495127, guid: c13f542dbe4e7b24689fefda9db40f42,
        type: 3}
      propertyPath: m_LocalRotation.z
      value: 0
      objectReference: {fileID: 0}
    - target: {fileID: 719605472934495127, guid: c13f542dbe4e7b24689fefda9db40f42,
        type: 3}
      propertyPath: m_LocalRotation.w
      value: 0.92387956
      objectReference: {fileID: 0}
    - target: {fileID: 719605472934495127, guid: c13f542dbe4e7b24689fefda9db40f42,
        type: 3}
      propertyPath: m_LocalPosition.x
      value: 3.575
      objectReference: {fileID: 0}
    - target: {fileID: 719605472934495127, guid: c13f542dbe4e7b24689fefda9db40f42,
        type: 3}
      propertyPath: m_LocalPosition.z
      value: 3.575
      objectReference: {fileID: 0}
    - target: {fileID: 719605472934495127, guid: c13f542dbe4e7b24689fefda9db40f42,
        type: 3}
      propertyPath: m_LocalEulerAnglesHint.y
      value: 45
      objectReference: {fileID: 0}
    - target: {fileID: 993178467028778601, guid: c13f542dbe4e7b24689fefda9db40f42,
        type: 3}
      propertyPath: m_LocalRotation.y
      value: 0.38268343
      objectReference: {fileID: 0}
    - target: {fileID: 993178467028778601, guid: c13f542dbe4e7b24689fefda9db40f42,
        type: 3}
      propertyPath: m_LocalRotation.w
      value: 0.92387956
      objectReference: {fileID: 0}
    - target: {fileID: 993178467028778601, guid: c13f542dbe4e7b24689fefda9db40f42,
        type: 3}
      propertyPath: m_LocalEulerAnglesHint.y
      value: 45
      objectReference: {fileID: 0}
    - target: {fileID: 2216897562902336976, guid: c13f542dbe4e7b24689fefda9db40f42,
        type: 3}
      propertyPath: m_LocalRotation.x
      value: 0
      objectReference: {fileID: 0}
    - target: {fileID: 2216897562902336976, guid: c13f542dbe4e7b24689fefda9db40f42,
        type: 3}
      propertyPath: m_LocalRotation.y
      value: 0.9238796
      objectReference: {fileID: 0}
    - target: {fileID: 2216897562902336976, guid: c13f542dbe4e7b24689fefda9db40f42,
        type: 3}
      propertyPath: m_LocalRotation.w
      value: -0.38268325
      objectReference: {fileID: 0}
    - target: {fileID: 2216897562902336976, guid: c13f542dbe4e7b24689fefda9db40f42,
        type: 3}
      propertyPath: m_LocalPosition.x
      value: -3.55
      objectReference: {fileID: 0}
    - target: {fileID: 2216897562902336976, guid: c13f542dbe4e7b24689fefda9db40f42,
        type: 3}
      propertyPath: m_LocalPosition.z
      value: -3.575
      objectReference: {fileID: 0}
    - target: {fileID: 2216897562902336976, guid: c13f542dbe4e7b24689fefda9db40f42,
        type: 3}
      propertyPath: m_LocalEulerAnglesHint.y
      value: 225
      objectReference: {fileID: 0}
    - target: {fileID: 3693357292623694259, guid: c13f542dbe4e7b24689fefda9db40f42,
        type: 3}
      propertyPath: m_LocalRotation.x
      value: 0
      objectReference: {fileID: 0}
    - target: {fileID: 3693357292623694259, guid: c13f542dbe4e7b24689fefda9db40f42,
        type: 3}
      propertyPath: m_LocalRotation.y
      value: 0.92387956
      objectReference: {fileID: 0}
    - target: {fileID: 3693357292623694259, guid: c13f542dbe4e7b24689fefda9db40f42,
        type: 3}
      propertyPath: m_LocalRotation.z
      value: 0
      objectReference: {fileID: 0}
    - target: {fileID: 3693357292623694259, guid: c13f542dbe4e7b24689fefda9db40f42,
        type: 3}
      propertyPath: m_LocalRotation.w
      value: 0.38268343
      objectReference: {fileID: 0}
    - target: {fileID: 3693357292623694259, guid: c13f542dbe4e7b24689fefda9db40f42,
        type: 3}
      propertyPath: m_LocalPosition.x
      value: 3.575
      objectReference: {fileID: 0}
    - target: {fileID: 3693357292623694259, guid: c13f542dbe4e7b24689fefda9db40f42,
        type: 3}
      propertyPath: m_LocalPosition.z
      value: -3.575
      objectReference: {fileID: 0}
    - target: {fileID: 3693357292623694259, guid: c13f542dbe4e7b24689fefda9db40f42,
        type: 3}
      propertyPath: m_LocalEulerAnglesHint.y
      value: 135
      objectReference: {fileID: 0}
    - target: {fileID: 5136437782589010058, guid: c13f542dbe4e7b24689fefda9db40f42,
        type: 3}
      propertyPath: m_LocalRotation.x
      value: 0
      objectReference: {fileID: 0}
    - target: {fileID: 5136437782589010058, guid: c13f542dbe4e7b24689fefda9db40f42,
        type: 3}
      propertyPath: m_LocalRotation.y
      value: -0.38268343
      objectReference: {fileID: 0}
    - target: {fileID: 5136437782589010058, guid: c13f542dbe4e7b24689fefda9db40f42,
        type: 3}
      propertyPath: m_LocalRotation.z
      value: 0
      objectReference: {fileID: 0}
    - target: {fileID: 5136437782589010058, guid: c13f542dbe4e7b24689fefda9db40f42,
        type: 3}
      propertyPath: m_LocalRotation.w
      value: 0.92387956
      objectReference: {fileID: 0}
    - target: {fileID: 5136437782589010058, guid: c13f542dbe4e7b24689fefda9db40f42,
        type: 3}
      propertyPath: m_LocalPosition.x
      value: -3.58
      objectReference: {fileID: 0}
    - target: {fileID: 5136437782589010058, guid: c13f542dbe4e7b24689fefda9db40f42,
        type: 3}
      propertyPath: m_LocalPosition.z
      value: 3.575
      objectReference: {fileID: 0}
    - target: {fileID: 5136437782589010058, guid: c13f542dbe4e7b24689fefda9db40f42,
        type: 3}
      propertyPath: m_LocalEulerAnglesHint.y
      value: -45
      objectReference: {fileID: 0}
    - target: {fileID: 5415673793157305430, guid: c13f542dbe4e7b24689fefda9db40f42,
        type: 3}
      propertyPath: m_LocalRotation.y
      value: 0.38268343
      objectReference: {fileID: 0}
    - target: {fileID: 5415673793157305430, guid: c13f542dbe4e7b24689fefda9db40f42,
        type: 3}
      propertyPath: m_LocalRotation.w
      value: 0.92387956
      objectReference: {fileID: 0}
    - target: {fileID: 5415673793157305430, guid: c13f542dbe4e7b24689fefda9db40f42,
        type: 3}
      propertyPath: m_LocalEulerAnglesHint.y
      value: 45
      objectReference: {fileID: 0}
    - target: {fileID: 5415673794623877122, guid: c13f542dbe4e7b24689fefda9db40f42,
        type: 3}
      propertyPath: m_Name
      value: RoomA-4D-Rotated
      objectReference: {fileID: 0}
    - target: {fileID: 5415673794623877123, guid: c13f542dbe4e7b24689fefda9db40f42,
        type: 3}
      propertyPath: m_LocalPosition.x
      value: 0
      objectReference: {fileID: 0}
    - target: {fileID: 5415673794623877123, guid: c13f542dbe4e7b24689fefda9db40f42,
        type: 3}
      propertyPath: m_LocalPosition.y
      value: 0
      objectReference: {fileID: 0}
    - target: {fileID: 5415673794623877123, guid: c13f542dbe4e7b24689fefda9db40f42,
        type: 3}
      propertyPath: m_LocalPosition.z
      value: 0
      objectReference: {fileID: 0}
    - target: {fileID: 5415673794623877123, guid: c13f542dbe4e7b24689fefda9db40f42,
        type: 3}
      propertyPath: m_LocalRotation.x
      value: 0
      objectReference: {fileID: 0}
    - target: {fileID: 5415673794623877123, guid: c13f542dbe4e7b24689fefda9db40f42,
        type: 3}
      propertyPath: m_LocalRotation.y
      value: 0
      objectReference: {fileID: 0}
    - target: {fileID: 5415673794623877123, guid: c13f542dbe4e7b24689fefda9db40f42,
        type: 3}
      propertyPath: m_LocalRotation.z
      value: 0
      objectReference: {fileID: 0}
    - target: {fileID: 5415673794623877123, guid: c13f542dbe4e7b24689fefda9db40f42,
        type: 3}
      propertyPath: m_LocalRotation.w
      value: 1
      objectReference: {fileID: 0}
    - target: {fileID: 5415673794623877123, guid: c13f542dbe4e7b24689fefda9db40f42,
        type: 3}
      propertyPath: m_RootOrder
      value: 0
      objectReference: {fileID: 0}
    - target: {fileID: 5415673794623877123, guid: c13f542dbe4e7b24689fefda9db40f42,
        type: 3}
      propertyPath: m_LocalEulerAnglesHint.x
      value: 0
      objectReference: {fileID: 0}
    - target: {fileID: 5415673794623877123, guid: c13f542dbe4e7b24689fefda9db40f42,
        type: 3}
      propertyPath: m_LocalEulerAnglesHint.y
      value: 0
      objectReference: {fileID: 0}
    - target: {fileID: 5415673794623877123, guid: c13f542dbe4e7b24689fefda9db40f42,
        type: 3}
      propertyPath: m_LocalEulerAnglesHint.z
      value: 0
      objectReference: {fileID: 0}
    - target: {fileID: 6348041159376044517, guid: c13f542dbe4e7b24689fefda9db40f42,
        type: 3}
      propertyPath: m_LocalRotation.y
      value: 0.38268343
      objectReference: {fileID: 0}
    - target: {fileID: 6348041159376044517, guid: c13f542dbe4e7b24689fefda9db40f42,
        type: 3}
      propertyPath: m_LocalRotation.w
      value: 0.92387956
      objectReference: {fileID: 0}
    - target: {fileID: 6348041159376044517, guid: c13f542dbe4e7b24689fefda9db40f42,
        type: 3}
      propertyPath: m_LocalEulerAnglesHint.y
      value: 45
      objectReference: {fileID: 0}
    m_RemovedComponents: []
  m_SourcePrefab: {fileID: 100100000, guid: c13f542dbe4e7b24689fefda9db40f42, type: 3}
